{"user_id": "usuario1","date": "2021-08-03","product_name": "producto1","price": 10.00,"purchased": false}
{"user_id": "usuario2","date": "2021-08-03","product_name": "producto3","price": 5.50,"purchased": true}
{"user_id": "usuario3","date": "2021-08-04","product_name": "producto1","price": 10.00,"purchased": true}
{"user_id": "usuario3","date": "2021-08-04","product_name": "producto2","price": 5.50,"purchased": true}
{"user_id": "usuario4","date": "2021-08-05","product_name": "producto3","price": 20.50,"purchased": false}
{"user_id": "usuario5","date": "2021-08-06","product_name": "producto3","price": 20.50,"purchased": true}
{"user_id": "usuario6","date": "2021-08-07","product_name": "producto1","price": 10.00,"purchased": false}
{"user_id": "usuario6","date": "2021-08-08","product_name": "producto4","price": 7.80,"purchased": true}
{"user_id": "usuario7","date": "2021-08-10","product_name": "producto5","price": 45.90,"purchased": true}
{"user_id": "usuario8","date": "2021-09-2","product_name": "producto6","price": 15.90,"purchased": true}
{"user_id": "usuario9","date": "2021-09-2","product_name": "producto3","price": 5.50,"purchased": false}
{"user_id": "usuario10","date": "2021-09-3","product_name": "producto1","price": 10.00,"purchased": true}
{"user_id": "usuario1","date": "2021-09-4","product_name": "producto5","price": 45.90,"purchased": true}
{"user_id": "usuario1","date": "2021-09-4","product_name": "producto6","price": 15.90,"purchased": true}
{"user_id": "usuario1","date": "2021-09-4","product_name": "producto3","price": 5.50,"purchased": true}
{"user_id": "usuario2","date": "2021-09-5","product_name": "producto1","price": 10.00,"purchased": true}
{"user_id": "usuario3","date": "2021-09-6","product_name": "producto5","price": 45.90,"purchased": true}
{"user_id": "usuario3","date": "2021-09-6","product_name": "producto6","price": 15.90,"purchased": true}
{"user_id": "usuario4","date": "2021-10-1","product_name": "producto3","price": 5.50,"purchased": true}
{"user_id": "usuario5","date": "2021-10-2","product_name": "producto1","price": 10.00,"purchased": true}
{"user_id": "usuario5","date": "2021-10-2","product_name": "producto5","price": 45.90,"purchased": true}